Sentiment Analysis
…
Sentiment analysis

bingsent <- get_sentiments("bing")
bingsent

# A tibble: 6,786 x 2
   word        sentiment
   <chr>       <chr>    
 1 2-faces     negative 
 2 abnormal    negative 
 3 abolish     negative 
 4 abominable  negative 
 5 abominably  negative 
 6 abominate   negative 
 7 abomination negative 
 8 abort       negative 
 9 aborted     negative 
10 aborts      negative 
#  with 6,776 more rows
…
pamphdata <- read_csv("https://raw.githubusercontent.com/cjbarrie/RDL-Ed/main/03-screenscrape-apis/data/pamphlets_formatted_gsheets.csv")

Sentiment dictionaries

AFINN from Finn rup Nielsen,

bing from Bing Liu and collaborators, and

nrc from Saif Mohammad and Peter Turney

Getting sentiment dictionaries

get_sentiments("afinn")

# A tibble: 2,477 x 2
   word       value
   <chr>      <dbl>
 1 abandon       -2
 2 abandoned     -2
 3 abandons      -2
 4 abducted      -2
 5 abduction     -2
 6 abductions    -2
 7 abhor         -3
 8 abhorred      -3
 9 abhorrent     -3
10 abhors        -3
#  with 2,467 more rows

Getting sentiment dictionaries

get_sentiments("nrc")

# A tibble: 13,901 x 2
   word        sentiment
   <chr>       <chr>    
 1 abacus      trust    
 2 abandon     fear     
 3 abandon     negative 
 4 abandon     sadness  
 5 abandoned   anger    
 6 abandoned   fear     
 7 abandoned   negative 
 8 abandoned   sadness  
 9 abandonment anger    
10 abandonment fear     
#  with 13,891 more rows

Getting sentiment dictionaries

get_sentiments("bing")

# A tibble: 6,786 x 2
   word        sentiment
   <chr>       <chr>    
 1 2-faces     negative 
 2 abnormal    negative 
 3 abolish     negative 
 4 abominable  negative 
 5 abominably  negative 
 6 abominate   negative 
 7 abomination negative 
 8 abort       negative 
 9 aborted     negative 
10 aborts      negative 
#  with 6,776 more rows
…
tidy_pamph <- pamphdata %>% 
  mutate(desc = tolower(text)) %>%
  unnest_tokens(word, desc) %>%
  filter(str_detect(word, "[a-z]"))

tidy_pamph <- tidy_pamph %>%
    filter(!word %in% stop_words$word)

Inspect

tidy_pamph %>%
  count(word, sort = TRUE)

# A tibble: 12,133 x 2
   word             n
   <chr>        <int>
 1 revolution    2051
 2 people        1564
 3 egypt         1073
 4 egyptian      1049
 5 al             905
 6 regime         804
 7 political      646
 8 party          619
 9 constitution   577
10 demands        575
#  with 12,123 more rows
…
