…
Sentiment analysis
========================================================


```r
bingsent <- get_sentiments("bing")
bingsent
```

```
# A tibble: 6,786 x 2
   word        sentiment
   <chr>       <chr>    
 1 2-faces     negative 
 2 abnormal    negative 
 3 abolish     negative 
 4 abominable  negative 
 5 abominably  negative 
 6 abominate   negative 
 7 abomination negative 
 8 abort       negative 
 9 aborted     negative 
10 aborts      negative 
# … with 6,776 more rows
```
…
Sentiment dictionaries
========================================================
* `AFINN` from [Finn Årup Nielsen](http://www2.imm.dtu.dk/pubdb/views/publication_details.php?id=6010),
* `bing` from [Bing Liu and collaborators](https://www.cs.uic.edu/~liub/FBS/sentiment-analysis.html), and
* `nrc` from [Saif Mohammad and Peter Turney](http://saifmohammad.com/WebPages/NRC-Emotion-Lexicon.htm)

Getting sentiment dictionaries
========================================================

```r
get_sentiments("afinn")
```

```
# A tibble: 2,477 x 2
   word       value
   <chr>      <dbl>
 1 abandon       -2
 2 abandoned     -2
 3 abandons      -2
 4 abducted      -2
 5 abduction     -2
 6 abductions    -2
 7 abhor         -3
 8 abhorred      -3
 9 abhorrent     -3
10 abhors        -3
# … with 2,467 more rows
```

Getting sentiment dictionaries
========================================================

```r
get_sentiments("nrc")
```

```
# A tibble: 13,901 x 2
   word        sentiment
   <chr>       <chr>    
 1 abacus      trust    
 2 abandon     fear     
 3 abandon     negative 
 4 abandon     sadness  
 5 abandoned   anger    
 6 abandoned   fear     
 7 abandoned   negative 
 8 abandoned   sadness  
 9 abandonment anger    
10 abandonment fear     
# … with 13,891 more rows
```

Getting sentiment dictionaries
========================================================

```r
get_sentiments("bing")
```

```
# A tibble: 6,786 x 2
   word        sentiment
   <chr>       <chr>    
 1 2-faces     negative 
 2 abnormal    negative 
 3 abolish     negative 
 4 abominable  negative 
 5 abominably  negative 
 6 abominate   negative 
 7 abomination negative 
 8 abort       negative 
 9 aborted     negative 
10 aborts      negative 
# … with 6,776 more rows
```
…
tidy_pamph <- tidy_pamph %>%
    filter(!word %in% stop_words$word)
```

Inspect
========================================================


```r
tidy_pamph %>%
  count(word, sort = TRUE)
```

```
# A tibble: 12,133 x 2
   word             n
   <chr>        <int>
 1 revolution    2051
 2 people        1564
 3 egypt         1073
 4 egyptian      1049
 5 al             905
 6 regime         804
 7 political      646
 8 party          619
 9 constitution   577
10 demands        575
# … with 12,123 more rows
```
…
