Computational Text Analysis: Sentiment Analysis
…
Well then tidy this further, as in the previous example, by removing stop words:

tidy_pamph <- tidy_pamph %>%
    filter(!word %in% stop_words$word)

Then we can check what words we are left with that appear with most frequency in the cleaned data. We see that, as expected, we have lots of words relating to revolution, people, demands etc.:

tidy_pamph %>%
  count(word, sort = TRUE)

## # A tibble: 12,133 x 2
##    word             n
##    <chr>        <int>
##  1 revolution    2051
##  2 people        1564
##  3 egypt         1073
##  4 egyptian      1049
##  5 al             905
##  6 regime         804
##  7 political      646
##  8 party          619
##  9 constitution   577
## 10 demands        575
## #  with 12,123 more rows
Get sentiment dictionaries

Several sentiment dictionaries come bundled with the tidytext packaged. These are:

AFINN from Finn rup Nielsen,

bing from Bing Liu and collaborators, and

nrc from Saif Mohammad and Peter Turney

We can have a look at some of these to see how the relevant dictionaries are stored.

get_sentiments("afinn")

## # A tibble: 2,477 x 2
##    word       value
##    <chr>      <dbl>
##  1 abandon       -2
##  2 abandoned     -2
##  3 abandons      -2
##  4 abducted      -2
##  5 abduction     -2
##  6 abductions    -2
##  7 abhor         -3
##  8 abhorred      -3
##  9 abhorrent     -3
## 10 abhors        -3
## #  with 2,467 more rows

get_sentiments("bing")

## # A tibble: 6,786 x 2
##    word        sentiment
##    <chr>       <chr>    
##  1 2-faces     negative 
##  2 abnormal    negative 
##  3 abolish     negative 
##  4 abominable  negative 
##  5 abominably  negative 
##  6 abominate   negative 
##  7 abomination negative 
##  8 abort       negative 
##  9 aborted     negative 
## 10 aborts      negative 
## #  with 6,776 more rows

get_sentiments("nrc")

## # A tibble: 13,901 x 2
##    word        sentiment
##    <chr>       <chr>    
##  1 abacus      trust    
##  2 abandon     fear     
##  3 abandon     negative 
##  4 abandon     sadness  
##  5 abandoned   anger    
##  6 abandoned   fear     
##  7 abandoned   negative 
##  8 abandoned   sadness  
##  9 abandonment anger    
## 10 abandonment fear     
## #  with 13,891 more rows

What do we see here. First, the AFINN lexicon gives words a score from -5 to +5, where more negative scores indicate more negative sentiment and more positive scores indicate more positive sentiment. The nrc lexicon opts for a binary classification: positive, negative, anger, anticipation, disgust, fear, joy, sadness, surprise, and trust, with each word given a score of 1/0 for each of these sentiments. In other words, for the nrc lexicon, words appear multiple times if they enclose more than one such emotion (see, e.g., abandon above). The bing lexicon is most minimal, classifying words simply into binary positive or negative categories.

Lets see how we might filter the texts by selecting a dictionary, or subset of a dictionary, and using inner_join() to then filter out pamphlet data. We might, for example, be interested in joy words. Maybe, we might hypothesize, there is a uptick of joy toward the beginning of the revolutionary uprising, which then subsequently declined. First, lets have a look at the words in our pamphlet data that the nrc lexicon codes as joy-related words.

nrc_joy <- get_sentiments("nrc") %>% 
  filter(sentiment == "joy")

tidy_pamph %>%
  inner_join(nrc_joy) %>%
  count(word, sort = TRUE)

## Joining, by = "word"

## # A tibble: 336 x 2
##    word         n
##    <chr>    <int>
##  1 freedom    447
##  2 god        381
##  3 youth      285
##  4 ministry   180
##  5 money      159
##  6 true       135
##  7 achieve    114
##  8 victory    106
##  9 majority   104
## 10 wealth     103
## #  with 326 more rows
…
