…
```
## Joining, by = "word"
```

```r
## Count most common words in both
tidy_tocq %>%
  count(word, sort = TRUE)
```

```
## # A tibble: 12,092 x 2
##    word           n
##    <chr>      <int>
##  1 people       876
##  2 power        806
##  3 united       781
##  4 democratic   773
##  5 government   718
##  6 time         620
##  7 nations      546
##  8 society      531
##  9 laws         530
## 10 country      524
## # … with 12,082 more rows
```
…
```r
tocq_lda <- LDA(tocq_dtm, k = 2, control = list(seed = 1234))
#  Extract the per-topic-per-word probabilities, called "β" from the model.
tocq_topics <- tidy(tocq_lda, matrix = "beta")
tocq_topics
```

```
## # A tibble: 24,184 x 3
##    topic term          beta
##    <int> <chr>        <dbl>
##  1     1 democratic 0.00674
##  2     2 democratic 0.00606
##  3     1 government 0.00660
##  4     2 government 0.00524
##  5     1 united     0.00936
##  6     2 united     0.00321
##  7     1 power      0.00614
##  8     2 power      0.00733
##  9     1 people     0.0107 
## 10     2 people     0.00335
## # … with 24,174 more rows
```
…
```
## Joining, by = "word"
```

```r
tocq_word_counts
```

```
## # A tibble: 69,781 x 3
##    document word             n
##    <chr>    <chr>        <int>
##  1 DiA2_76  united          88
##  2 DiA2_60  honor           70
##  3 DiA1_52  union           66
##  4 DiA2_76  president       60
##  5 DiA2_76  law             59
##  6 DiA1_42  jury            57
##  7 DiA2_76  time            50
##  8 DiA1_11  township        49
##  9 DiA1_21  federal         48
## 10 DiA2_76  constitution    48
## # … with 69,771 more rows
```
…
tocq_chapters_dtm <- tocq_word_counts %>%
  cast_dtm(document, word, n)

# Look for 2 topics across all chapters 
# (one would assume these correspond to vols. 1 and 2)
tocq_chapters_lda <- LDA(tocq_chapters_dtm, k = 2, control = list(seed = 1234))

# Examine per-topic-per-word probabilities
tocq_chapter_topics <- tidy(tocq_chapters_lda, matrix = "beta")
tocq_chapter_topics
```

```
## # A tibble: 23,796 x 3
##    topic term           beta
##    <int> <chr>         <dbl>
##  1     1 united    0.00401  
##  2     2 united    0.00916  
##  3     1 honor     0.00169  
##  4     2 honor     0.000203 
##  5     1 union     0.0000296
##  6     2 union     0.00791  
##  7     1 president 0.0000757
##  8     2 president 0.00274  
##  9     1 law       0.00168  
## 10     2 law       0.00427  
## # … with 23,786 more rows
```
…
```r
# Look at per-document-per-topic probabilities ("gamma")

tocq_chapters_gamma <- tidy(tocq_chapters_lda, matrix = "gamma")
tocq_chapters_gamma
```

```
## # A tibble: 264 x 3
##    document topic     gamma
##    <chr>    <int>     <dbl>
##  1 DiA2_76      1 0.551    
##  2 DiA2_60      1 1.00     
##  3 DiA1_52      1 0.0000464
##  4 DiA1_42      1 0.0000746
##  5 DiA1_11      1 0.0000382
##  6 DiA1_21      1 0.0000437
##  7 DiA1_20      1 0.0000425
##  8 DiA1_28      1 0.249    
##  9 DiA1_50      1 0.0000477
## 10 DiA1_22      1 0.0000466
## # … with 254 more rows
```
…
```r
# Look document-word pairs were to see which words in each documents were assigned
# to a given topic

assignments <- augment(tocq_chapters_lda, data = tocq_chapters_dtm)
assignments
```

```
## # A tibble: 69,781 x 4
##    document term   count .topic
##    <chr>    <chr>  <dbl>  <dbl>
##  1 DiA2_76  united    88      2
##  2 DiA2_60  united     6      1
##  3 DiA1_52  united    11      2
##  4 DiA1_42  united     7      2
##  5 DiA1_11  united    13      2
##  6 DiA1_21  united    23      2
##  7 DiA1_20  united    21      2
##  8 DiA1_28  united    14      2
##  9 DiA1_50  united     5      2
## 10 DiA1_22  united     8      2
## # … with 69,771 more rows
```
…
