…
Word frequency analysis
========================================================


```r
bookdata %>%
  unnest_tokens(word, txt) %>%
  count(word, sort=T)
```

```
# A tibble: 6,538 x 2
   word      n
   <chr> <int>
 1 the    4331
 2 to     4162
 3 of     3610
 4 and    3585
 5 her    2203
 6 i      2065
 7 a      1954
 8 in     1880
 9 was    1843
10 she    1695
# … with 6,528 more rows
```
…
```r
tidy_des <- tidy_des %>%
    filter(!word %in% stop_words$word)
```

Checking data
========================================================

```r
tidy_des %>%
  count(word, sort = TRUE)
```

```
# A tibble: 24,995 x 2
   word       n
   <chr>  <int>
 1 rsquo   5638
 2 book    2088
 3 event   1356
 4 author  1332
 5 world   1240
 6 story   1159
 7 join    1095
 8 em      1064
 9 life     879
10 strong   864
# … with 24,985 more rows
```
…
tidy_des <- tidy_des %>%
  filter(!word %in% remove_reg)
```

Checking data again
========================================================

```r
tidy_des %>%
  count(word, sort = TRUE)
```

```
# A tibble: 24,989 x 2
   word        n
   <chr>   <int>
 1 book     2088
 2 event    1356
 3 author   1332
 4 world    1240
 5 story    1159
 6 join     1095
 7 life      879
 8 stories   860
 9 chaired   815
10 books     767
# … with 24,979 more rows
```
…
